<?xml version="1.0" encoding="UTF-8"?>
<svg width="20px" height="19px" viewBox="0 0 20 19" version="1.1" xmlns="http://www.w3.org/2000/svg" xmlns:xlink="http://www.w3.org/1999/xlink">
    <!-- Generator: Sketch 46.2 (44496) - http://www.bohemiancoding.com/sketch -->
    <title>Icons/car</title>
    <desc>Created with Sketch.</desc>
    <defs></defs>
    <g id="UI-Kit" stroke="none" stroke-width="1" fill="none" fill-rule="evenodd">
        <g id="Icons" transform="translate(-832.000000, -604.000000)" fill="#138E73">
            <g id="Icons/Transportation-" transform="translate(825.000000, 600.000000)">
                <path d="M11.3725586,17.2524414 C10.8598607,17.2524414 10.420412,17.0693378 10.0541992,16.703125 C9.68798645,16.3369122 9.50488281,15.8933945 9.50488281,15.3725586 C9.50488281,14.8598607 9.68798645,14.420412 10.0541992,14.0541992 C10.420412,13.6879865 10.8598607,13.5048828 11.3725586,13.5048828 C11.8933945,13.5048828 12.3369122,13.6879865 12.703125,14.0541992 C13.0693378,14.420412 13.2524414,14.8598607 13.2524414,15.3725586 C13.2524414,15.8933945 13.0693378,16.3369122 12.703125,16.703125 C12.3369122,17.0693378 11.8933945,17.2524414 11.3725586,17.2524414 Z M11.3725586,14.75 C11.2016593,14.75 11.0551764,14.8110345 10.9331055,14.9331055 C10.8110345,15.0551764 10.75,15.2016593 10.75,15.3725586 C10.75,15.5434579 10.8110345,15.6899408 10.9331055,15.8120117 C11.0551764,15.9340826 11.2016593,15.9951172 11.3725586,15.9951172 C11.5434579,15.9951172 11.6899408,15.9340826 11.8120117,15.8120117 C11.9340826,15.6899408 11.9951172,15.5434579 11.9951172,15.3725586 C11.9951172,15.2016593 11.9340826,15.0551764 11.8120117,14.9331055 C11.6899408,14.8110345 11.5434579,14.75 11.3725586,14.75 Z M22.6274414,17.2524414 C22.1066055,17.2524414 21.6630878,17.0693378 21.296875,16.703125 C20.9306622,16.3369122 20.7475586,15.8933945 20.7475586,15.3725586 C20.7475586,14.8598607 20.9306622,14.420412 21.296875,14.0541992 C21.6630878,13.6879865 22.1066055,13.5048828 22.6274414,13.5048828 C23.1401393,13.5048828 23.579588,13.6879865 23.9458008,14.0541992 C24.3120135,14.420412 24.4951172,14.8598607 24.4951172,15.3725586 C24.4951172,15.8933945 24.3120135,16.3369122 23.9458008,16.703125 C23.579588,17.0693378 23.1401393,17.2524414 22.6274414,17.2524414 Z M22.6274414,14.75 C22.4565421,14.75 22.3100592,14.8110345 22.1879883,14.9331055 C22.0659174,15.0551764 22.0048828,15.2016593 22.0048828,15.3725586 C22.0048828,15.5434579 22.0659174,15.6899408 22.1879883,15.8120117 C22.3100592,15.9340826 22.4565421,15.9951172 22.6274414,15.9951172 C22.7983407,15.9951172 22.9448236,15.9340826 23.0668945,15.8120117 C23.1889655,15.6899408 23.25,15.5434579 23.25,15.3725586 C23.25,15.2016593 23.1889655,15.0551764 23.0668945,14.9331055 C22.9448236,14.8110345 22.7983407,14.75 22.6274414,14.75 Z M25.7036133,12.1376953 C26.1349305,12.4306655 26.4584136,12.7948383 26.6740723,13.2302246 C26.8897309,13.6656109 26.9975586,14.1721976 26.9975586,14.75 L26.9975586,17.875 C26.9975586,18.2819031 26.8795585,18.6460759 26.6435547,18.9675293 C26.4075509,19.2889827 26.1105161,19.5148105 25.7524414,19.6450195 L25.7524414,21 C25.7524414,21.3417986 25.6303723,21.6347644 25.3862305,21.8789062 C25.1420886,22.1230481 24.8450538,22.2451172 24.4951172,22.2451172 L23.25,22.2451172 C22.9082014,22.2451172 22.6152356,22.1230481 22.3710938,21.8789062 C22.1269519,21.6347644 22.0048828,21.3417986 22.0048828,21 L22.0048828,19.7548828 L11.9951172,19.7548828 L11.9951172,21 C11.9951172,21.3417986 11.8730481,21.6347644 11.6289062,21.8789062 C11.3847644,22.1230481 11.0917986,22.2451172 10.75,22.2451172 L9.50488281,22.2451172 C9.15494617,22.2451172 8.85791138,22.1230481 8.61376953,21.8789062 C8.36962769,21.6347644 8.24755859,21.3417986 8.24755859,21 L8.24755859,19.6450195 C7.88948389,19.5148105 7.5924491,19.2889827 7.35644531,18.9675293 C7.12044153,18.6460759 7.00244141,18.2819031 7.00244141,17.875 L7.00244141,14.75 C7.00244141,14.1721976 7.1102691,13.6656109 7.32592773,13.2302246 C7.54158636,12.7948383 7.86506946,12.4306655 8.29638672,12.1376953 C8.33707703,11.8854154 8.40014606,11.5293806 8.4855957,11.0695801 C8.57104535,10.6097796 8.66870062,10.1235377 8.77856445,9.61083984 C8.88842828,9.09814197 9.01049738,8.60172766 9.14477539,8.12158203 C9.27905341,7.6414364 9.41943286,7.25895325 9.56591797,6.97412109 C9.75309338,6.5916322 10.0908179,6.2559422 10.5791016,5.96704102 C11.0673853,5.67813983 11.6980756,5.43603613 12.4711914,5.24072266 C12.7885758,5.15934204 13.1242658,5.08813507 13.4782715,5.02709961 C13.8322772,4.96606415 14.2005189,4.91520203 14.5830078,4.87451172 C14.9654967,4.83382141 15.3601868,4.80330414 15.7670898,4.78295898 C16.1739929,4.76261383 16.5849589,4.75244141 17,4.75244141 C17.4150411,4.75244141 17.8260071,4.76261383 18.2329102,4.78295898 C18.6398132,4.80330414 19.0345033,4.83382141 19.4169922,4.87451172 C19.7994811,4.91520203 20.1677228,4.96606415 20.5217285,5.02709961 C20.8757342,5.08813507 21.2114242,5.15934204 21.5288086,5.24072266 C22.3019244,5.43603613 22.9326147,5.67813983 23.4208984,5.96704102 C23.9091821,6.2559422 24.2469066,6.5916322 24.434082,6.97412109 C24.5805671,7.25895325 24.7209466,7.6414364 24.8552246,8.12158203 C24.9895026,8.60172766 25.1115717,9.09814197 25.2214355,9.61083984 C25.3312994,10.1235377 25.4289547,10.6097796 25.5144043,11.0695801 C25.5998539,11.5293806 25.662923,11.8854154 25.7036133,12.1376953 Z M10.6889648,7.5234375 C10.5994462,7.71061292 10.5078943,7.95882007 10.4143066,8.26806641 C10.3207189,8.57731274 10.2291671,8.91503723 10.1396484,9.28125 C10.0501298,9.64746277 9.96671588,10.025877 9.8894043,10.4165039 C9.81209271,10.8071309 9.74088574,11.1692692 9.67578125,11.5029297 C9.74088574,11.4866536 9.80395477,11.4703777 9.86499023,11.4541016 C9.9260257,11.4378254 9.98909473,11.4215496 10.0541992,11.4052734 C10.3390314,11.3401689 10.6442041,11.2832034 10.9697266,11.234375 C11.295249,11.1855466 11.6370425,11.1468914 11.9951172,11.1184082 C12.3531919,11.089925 12.7275371,11.0675457 13.1181641,11.0512695 C13.508791,11.0349934 13.915688,11.0227865 14.3388672,11.0146484 L12.2758789,9.64746094 C12.1375319,9.5498042 12.050049,9.4155282 12.0134277,9.24462891 C11.9768065,9.07372961 12.0073237,8.91910876 12.1049805,8.78076172 C12.2026372,8.63427661 12.3348787,8.54475928 12.501709,8.51220703 C12.6685392,8.47965479 12.8251946,8.51220654 12.9716797,8.60986328 L16.5605469,11.0024414 L17,11.0024414 C17.6184927,11.0024414 18.2186657,11.0044759 18.8005371,11.0085449 C19.3824085,11.012614 19.9378229,11.0227864 20.4667969,11.0390625 L18.5136719,9.63525391 C18.3753248,9.52945911 18.2919109,9.39314862 18.2634277,9.22631836 C18.2349445,9.0594881 18.2695308,8.90283276 18.3671875,8.75634766 C18.4648442,8.61800061 18.5991202,8.53458673 18.7700195,8.50610352 C18.9409188,8.4776203 19.0955397,8.51627551 19.2338867,8.62207031 L22.859375,11.2099609 C23.0546885,11.2343751 23.2418611,11.2628579 23.4208984,11.2954102 C23.5999358,11.3279624 23.7749015,11.3645831 23.9458008,11.4052734 C24.0109053,11.4215496 24.0739743,11.4378254 24.1350098,11.4541016 C24.1960452,11.4703777 24.2591143,11.4866536 24.3242188,11.5029297 C24.2591143,11.1692692 24.1879073,10.8071309 24.1105957,10.4165039 C24.0332841,10.025877 23.9498702,9.64746277 23.8603516,9.28125 C23.7708329,8.91503723 23.6792811,8.57731274 23.5856934,8.26806641 C23.4921057,7.95882007 23.4005538,7.71061292 23.3110352,7.5234375 C23.2215165,7.34440015 23.0119645,7.16333099 22.682373,6.98022461 C22.3527816,6.79711823 21.9174018,6.63232495 21.3762207,6.48583984 C20.8350396,6.33935474 20.1962114,6.22135461 19.4597168,6.13183594 C18.7232222,6.04231726 17.9033248,5.99755859 17,5.99755859 C16.0966752,5.99755859 15.2767778,6.04231726 14.5402832,6.13183594 C13.8037886,6.22135461 13.1649604,6.33935474 12.6237793,6.48583984 C12.0825982,6.63232495 11.6472184,6.79711823 11.317627,6.98022461 C10.9880355,7.16333099 10.7784835,7.34440015 10.6889648,7.5234375 Z M10.75,21 L10.75,19.7548828 L9.50488281,19.7548828 L9.50488281,21 L10.75,21 Z M23.25,21 L24.4951172,21 L24.4951172,19.7548828 L23.25,19.7548828 L23.25,21 Z M25.7524414,17.875 L25.7524414,14.75 C25.7524414,14.1721976 25.5876481,13.7185075 25.2580566,13.388916 C24.9284651,13.0593245 24.3933956,12.8050139 23.652832,12.6259766 C23.2622051,12.5283198 22.8227563,12.4550784 22.3344727,12.40625 C21.846189,12.3574216 21.3212919,12.3208009 20.7597656,12.2963867 C20.1982394,12.2719725 19.6021353,12.2577311 18.9714355,12.2536621 C18.3407358,12.2495931 17.6835972,12.2475586 17,12.2475586 C16.3164028,12.2475586 15.6592642,12.2495931 15.0285645,12.2536621 C14.3978647,12.2577311 13.8017606,12.2719725 13.2402344,12.2963867 C12.6787081,12.3208009 12.153811,12.3574216 11.6655273,12.40625 C11.1772437,12.4550784 10.7377949,12.5283198 10.347168,12.6259766 C9.60660437,12.8050139 9.07153485,13.0593245 8.74194336,13.388916 C8.41235187,13.7185075 8.24755859,14.1721976 8.24755859,14.75 L8.24755859,17.875 C8.24755859,18.0458993 8.30859314,18.1923822 8.43066406,18.3144531 C8.55273499,18.436524 8.6992179,18.4975586 8.87011719,18.4975586 L25.1298828,18.4975586 C25.3007821,18.4975586 25.447265,18.436524 25.5693359,18.3144531 C25.6914069,18.1923822 25.7524414,18.0458993 25.7524414,17.875 Z" id="car2"></path>
            </g>
        </g>
    </g>
</svg>