<?xml version="1.0" encoding="UTF-8"?>
<svg width="20px" height="25px" viewBox="0 0 20 25" version="1.1" xmlns="http://www.w3.org/2000/svg" xmlns:xlink="http://www.w3.org/1999/xlink">
    <!-- Generator: Sketch 46.2 (44496) - http://www.bohemiancoding.com/sketch -->
    <title>Icons/money-bag</title>
    <desc>Created with Sketch.</desc>
    <defs></defs>
    <g id="UI-Kit" stroke="none" stroke-width="1" fill="none" fill-rule="evenodd">
        <g id="Icons" transform="translate(-762.000000, -600.000000)" fill="#003B4B">
            <g id="Icons/Savings" transform="translate(755.000000, 600.000000)">
                <g id="Group" transform="translate(7.000000, 0.000000)">
                    <path d="M9.6556327,14.9306884 C8.91274552,14.6893562 8.77011118,14.4504016 8.77011118,14.0949418 C8.77011118,13.6729076 9.08747258,13.4018546 9.64136927,13.3495462 C9.64374651,13.3495462 9.72338401,13.3400355 9.8446232,13.3400355 C9.98250307,13.3400355 10.1881342,13.3519238 10.3842565,13.4054211 C10.638621,13.475562 11.0308655,13.621788 11.3708106,13.8274553 C11.4813523,13.8928409 11.5918939,13.9261281 11.7024355,13.9261281 C12.0518896,13.9261281 12.3252721,13.656264 12.3252721,13.3126925 C12.3252721,13.0856262 12.2111646,12.9013577 11.9972131,12.781286 C11.5360288,12.490023 11.051072,12.3128875 10.5185705,12.2403689 L10.5185705,11.7695927 C10.5185705,11.4925956 10.3010531,11.2750399 10.0229161,11.2750399 C9.74596779,11.2750399 9.51775284,11.4961621 9.51775284,11.7695927 L9.51775284,12.2284806 C8.26970237,12.3533076 7.46857282,13.1058363 7.46857282,14.1627051 C7.46857282,15.2469169 8.0890322,15.8508419 9.61403102,16.2479107 L10.3818792,16.4321792 C11.1461616,16.6711338 11.2959276,16.9255431 11.2959276,17.2881359 C11.2959276,17.7244361 10.976189,17.9990555 10.3985199,18.0620635 C10.3973313,18.0620635 10.320071,18.0680076 10.2000204,18.0680076 C10.0561975,18.0680076 9.85413216,18.0596858 9.64493513,18.0240209 C9.23842726,17.95388 8.65719232,17.6899601 8.23404378,17.3856199 C8.13301112,17.3059684 7.99869712,17.2619817 7.86557174,17.2619817 C7.5220607,17.2619817 7.25343269,17.530657 7.25343269,17.8742285 C7.25343269,18.0953507 7.35565397,18.2796191 7.54821033,18.4044462 C8.14727456,18.8264804 8.81052424,19.0844562 9.51775284,19.1724295 L9.51775284,19.7097802 C9.51775284,19.9832108 9.74596779,20.2055218 10.0229161,20.2055218 C10.3010531,20.2055218 10.5185705,19.9879661 10.5185705,19.7097802 L10.5185705,19.1926396 C11.7856388,19.0487914 12.5986546,18.280808 12.5986546,17.2191839 C12.5986546,16.1397273 11.9472911,15.5155922 10.4234809,15.135167 L9.6556327,14.9306884 Z" id="Fill-1"></path>
                    <path d="M9.98706674,23.9394967 C6.64166769,23.9394967 1.03029639,23.1196267 1.03029639,17.6308239 C1.03029639,14.1453466 3.33231821,10.0099472 6.28735203,8.14155009 L13.8114099,8.14258008 C16.6057657,10.5249409 18.9438371,14.8241083 18.9438371,17.6308239 C18.9438371,23.1196267 13.3324658,23.9394967 9.98706674,23.9394967 L9.98706674,23.9394967 Z M4.79696028,2.24590226 C4.65791198,1.99149538 4.72486116,1.66086943 4.94527846,1.50946128 C5.81149786,0.914128568 7.02997294,0.92133848 7.90546222,1.5238811 L8.20209859,1.72781861 L8.49461501,1.52079114 C9.35568447,0.914128568 10.6081491,0.914128568 11.4723086,1.52079114 L11.766885,1.72678862 L12.0614613,1.52285112 C12.9379806,0.91721853 14.1585157,0.91309858 15.029885,1.5156412 C15.1462736,1.59701021 15.2307325,1.72884859 15.2533923,1.86995687 C15.278112,2.01106514 15.2441224,2.15938332 15.1318538,2.32109134 L13.80317,4.63959296 L6.09474439,4.63959296 L4.79696028,2.24590226 Z M6.26984225,7.1115627 L6.07620462,6.98384426 C5.99071566,6.77990676 5.94642621,6.56154943 5.94642621,6.34628207 C5.94642621,6.10938497 6.01337539,5.88381773 6.10916421,5.66958035 L13.7290109,5.66958035 C13.8247998,5.88381773 13.888659,6.11041496 13.888659,6.34628207 C13.888659,6.55845947 13.8453995,6.77269685 13.7640305,6.9725144 L13.561123,7.11259269 L6.26984225,7.1115627 Z M14.9186464,6.34628207 C14.9186464,5.95076691 14.8321274,5.56143168 14.6662995,5.20505604 L15.9970432,2.87728454 C16.2401202,2.5373887 16.340029,2.10685397 16.2699898,1.69691899 C16.1989207,1.28183407 15.9609936,0.907948643 15.6159478,0.668991569 C14.4757518,-0.119978773 12.9730002,-0.177658067 11.7689449,0.491833737 C10.6761283,-0.12100876 9.28873529,-0.123068735 8.19591867,0.492863725 C6.99598336,-0.17250813 5.49632172,-0.118948786 4.3623056,0.659721682 C3.7082636,1.10982617 3.50226613,2.022395 3.89160136,2.73823624 L5.19865536,5.14840673 C5.01325763,5.52023218 4.91643881,5.92810719 4.91643881,6.34628207 C4.91643881,6.76548694 5.01943755,7.18675178 5.2120452,7.56578714 C2.20860196,9.79055991 0.000308996215,13.9620088 0.000308996215,17.6308239 C0.000308996215,22.2946068 3.64028444,24.9694841 9.98706674,24.9694841 C16.333849,24.9694841 19.9738245,22.2946068 19.9738245,17.6308239 C19.9738245,14.5717614 17.6120634,10.1180959 14.6498197,7.50295791 C14.8228575,7.14040235 14.9186464,6.7438572 14.9186464,6.34628207 Z" id="Fill-3"></path>
                </g>
            </g>
        </g>
    </g>
</svg>
