<?xml version="1.0" encoding="UTF-8"?>
<svg width="25px" height="26px" viewBox="0 0 25 26" version="1.1" xmlns="http://www.w3.org/2000/svg" xmlns:xlink="http://www.w3.org/1999/xlink">
    <!-- Generator: Sketch 46.2 (44496) - http://www.bohemiancoding.com/sketch -->
    <title>Icons/money-bags</title>
    <desc>Created with Sketch.</desc>
    <defs></defs>
    <g id="UI-Kit" stroke="none" stroke-width="1" fill="none" fill-rule="evenodd">
        <g id="Icons" transform="translate(-589.000000, -399.000000)">
            <g id="Icons/money-bags" transform="translate(589.000000, 399.000000)">
                <path d="M14.4160333,7.8372 C17.3210333,10.2405333 19.9985333,14.8372 19.9985333,18.0898667 C19.9985333,23.1182 15.6527,25.0828667 10.2918667,25.0828667 C4.92986667,25.0828667 0.584033333,23.1182 0.584033333,18.0898667 C0.584033333,14.4137 2.98153333,9.8847 6.32636667,7.83953333" id="Stroke-1" stroke="#003B4B"></path>
                <path d="M5.88478333,7.8372 L14.1191167,7.8372 L14.5822833,7.5187 C14.7362833,7.20836667 14.81795,6.87003333 14.81795,6.5247 C14.81795,6.10703333 14.7012833,5.69986667 14.4842833,5.34636667 L16.02195,2.66186667 C16.18995,2.42736667 16.2587833,2.13103333 16.2097833,1.8487 C16.16195,1.56286667 15.9962833,1.30386667 15.75945,1.14053333 C14.6686167,0.384533333 13.1857833,0.407866667 12.1171167,1.14753333 C11.05195,0.3997 9.52128333,0.398533333 8.45728333,1.1487 C7.39211667,0.414866667 5.91395,0.3857 4.82661667,1.13236667 C4.37628333,1.44153333 4.23628333,2.0762 4.50811667,2.57553333 L5.98745,5.30436667 C5.75061667,5.66603333 5.62228333,6.0872 5.62228333,6.5247 C5.62228333,6.87586667 5.70861667,7.22236667 5.86728333,7.53503333 L6.32695,7.83953333" id="Stroke-3" stroke="#003B4B"></path>
                <path d="M5.98733333,5.3039 L14.4841667,5.3039" id="Stroke-5" stroke="#003B4B"></path>
                <path d="M10.7576,15.5094333 L10.0389333,15.3181 C9.34126667,15.0929333 9.20943333,14.8689333 9.20943333,14.5352667 C9.20943333,14.1397667 9.50693333,13.8854333 10.0237667,13.8364333 C10.0261,13.8364333 10.1019333,13.8282667 10.2151,13.8282667 C10.3446,13.8282667 10.5371,13.8387667 10.7214333,13.8901 C10.9582667,13.9542667 11.3257667,14.0931 11.6454333,14.2844333 C11.7481,14.3462667 11.8519333,14.3766 11.9557667,14.3766 C12.2836,14.3766 12.5391,14.1246 12.5391,13.8037667 C12.5391,13.5891 12.4329333,13.4176 12.2322667,13.3044333 C11.8006,13.0314333 11.3456,12.8657667 10.8462667,12.7992667 L10.8462667,12.3571 C10.8462667,12.0981 10.6421,11.8939333 10.3831,11.8939333 C10.1217667,11.8939333 9.90943333,12.1016 9.90943333,12.3571 L9.90943333,12.7876 C8.74043333,12.9042667 7.9891,13.6101 7.9891,14.5994333 C7.9891,15.6144333 8.57126667,16.1802667 10.0004333,16.5524333 L10.7191,16.7251 C11.4342667,16.9479333 11.5742667,17.1871 11.5742667,17.5266 C11.5742667,17.9349333 11.2744333,18.1927667 10.7331,18.2522667 C10.7331,18.2522667 10.6596,18.2569333 10.5476,18.2569333 C10.4134333,18.2569333 10.2244333,18.2499333 10.0284333,18.2161 C9.64693333,18.1507667 9.1021,17.9034333 8.70543333,17.6176 C8.6121,17.5441 8.4861,17.5021 8.3601,17.5021 C8.03926667,17.5021 7.78726667,17.7541 7.78726667,18.0749333 C7.78726667,18.2826 7.8841,18.4552667 8.06376667,18.5719333 C8.62493333,18.9674333 9.2456,19.2101 9.90943333,19.2917667 L9.90943333,19.7957667 C9.90943333,20.0512667 10.1217667,20.2589333 10.3831,20.2589333 C10.6421,20.2589333 10.8462667,20.0547667 10.8462667,19.7957667 L10.8462667,19.3104333 C12.0327667,19.1762667 12.7946,18.4552667 12.7946,17.4624333 C12.7946,16.4509333 12.1856,15.8664333 10.7576,15.5094333" id="Fill-7" fill="#003B4B"></path>
                <path d="M20.1616333,7.45441667 C20.3179667,7.12425 20.4054667,6.76258333 20.4054667,6.40091667 C20.4054667,6.04158333 20.3284667,5.68808333 20.1803,5.36375 L21.3808,3.26258333 C21.6071333,2.94758333 21.6981333,2.54975 21.6339667,2.17291667 C21.5698,1.78908333 21.3493,1.44141667 21.0284667,1.22091667 C20.3378,0.742583333 19.5059667,0.585083333 18.7009667,0.692416667 C18.8538,0.965416667 18.9704667,1.25941667 19.0229667,1.57208333 C19.0276333,1.59541667 19.0253,1.61991667 19.0288,1.64441667 C19.5351333,1.62108333 20.0449667,1.74125 20.4673,2.03291667 C20.5676333,2.10175 20.6388,2.21491667 20.6609667,2.33858333 C20.6808,2.45875 20.6516333,2.58708333 20.5513,2.73058333 L19.3531333,4.82475 L17.8738,4.82475 L17.5086333,5.46175 C17.5413,5.57608333 17.5599667,5.69391667 17.5821333,5.81175 L19.2819667,5.81175 C19.3624667,5.99725 19.4184667,6.19441667 19.4184667,6.40091667 C19.4184667,6.58875 19.3811333,6.77658333 19.3099667,6.95275 L19.1384667,7.07058333 L17.5949667,7.07058333 C17.5798,7.17091667 17.5833,7.27241667 17.5599667,7.37275 C17.7816333,7.58741667 17.9893,7.82658333 18.2004667,8.05758333 L19.3636333,8.05758333 C21.8953,10.2194167 24.0128,14.11375 24.0128,16.6559167 C24.0128,18.3289167 23.4283,19.51425 22.5463,20.36125 C22.3876333,20.9690833 22.1624667,21.5384167 21.8743,22.0669167 C23.9019667,20.9399167 24.9998,19.0989167 24.9998,16.6559167 C24.9998,13.8734167 22.8531333,9.83675 20.1616333,7.45441667" id="Fill-9" fill="#003B4B"></path>
            </g>
        </g>
    </g>
</svg>
