<?xml version="1.0" encoding="UTF-8"?>
<svg width="19px" height="24px" viewBox="0 0 19 24" version="1.1" xmlns="http://www.w3.org/2000/svg" xmlns:xlink="http://www.w3.org/1999/xlink">
    <!-- Generator: Sketch 46.2 (44496) - http://www.bohemiancoding.com/sketch -->
    <title>Icons/padlock</title>
    <desc>Created with Sketch.</desc>
    <defs></defs>
    <g id="UI-Kit" stroke="none" stroke-width="1" fill="none" fill-rule="evenodd">
        <g id="Icons" transform="translate(-513.000000, -399.000000)" fill="#003B4B">
            <g id="Icons/padlock/green-mid" transform="translate(508.000000, 397.000000)">
                <path d="M21.0598145,11.0625 C21.8534382,11.0625 22.5310031,11.3432589 23.0925293,11.9047852 C23.6540555,12.4663114 23.9348145,13.1438762 23.9348145,13.9375 L23.9348145,22.5625 C23.9348145,23.3561238 23.6540555,24.0336886 23.0925293,24.5952148 C22.5310031,25.1567411 21.8534382,25.4375 21.0598145,25.4375 L8.12231445,25.4375 C7.32869069,25.4375 6.65112585,25.1567411 6.08959961,24.5952148 C5.52807336,24.0336886 5.24731445,23.3561238 5.24731445,22.5625 L5.24731445,13.9375 C5.24731445,13.1438762 5.52807336,12.4663114 6.08959961,11.9047852 C6.65112585,11.3432589 7.32869069,11.0625 8.12231445,11.0625 L8.84106445,11.0625 L8.84106445,8.32226562 C8.84106445,7.51366783 8.97957218,6.75000359 9.2565918,6.03125 C9.53361141,5.31249641 9.92293043,4.6873399 10.4245605,4.15576172 C10.9261907,3.62418354 11.5288865,3.2049169 12.232666,2.89794922 C12.9364456,2.59098154 13.7150836,2.4375 14.5686035,2.4375 C15.4071494,2.4375 16.182044,2.59098154 16.8933105,2.89794922 C17.6045771,3.2049169 18.2147598,3.62044009 18.723877,4.14453125 C19.2329941,4.66862241 19.6298,5.29003547 19.9143066,6.00878906 C20.1988133,6.72754266 20.3410645,7.4986938 20.3410645,8.32226562 L20.3410645,11.0625 L21.0598145,11.0625 Z M10.2785645,8.32226562 L10.2785645,11.0625 L18.9035645,11.0625 L18.9035645,8.32226562 C18.9035645,7.07942087 18.5030151,6.02751082 17.7019043,5.16650391 C16.9007935,4.305497 15.8563704,3.875 14.5686035,3.875 C13.2658626,3.875 12.2251829,4.30924045 11.4465332,5.17773438 C10.6678835,6.0462283 10.2785645,7.0943949 10.2785645,8.32226562 Z M22.4973145,22.5625 L22.4973145,13.9375 C22.4973145,13.5481751 22.3550633,13.2112644 22.0705566,12.9267578 C21.78605,12.6422512 21.4491393,12.5 21.0598145,12.5 L8.12231445,12.5 C7.73298959,12.5 7.3960789,12.6422512 7.11157227,12.9267578 C6.82706563,13.2112644 6.68481445,13.5481751 6.68481445,13.9375 L6.68481445,22.5625 C6.68481445,22.9518249 6.82706563,23.2887356 7.11157227,23.5732422 C7.3960789,23.8577488 7.73298959,24 8.12231445,24 L21.0598145,24 C21.4491393,24 21.78605,23.8577488 22.0705566,23.5732422 C22.3550633,23.2887356 22.4973145,22.9518249 22.4973145,22.5625 Z M14.5910645,15.375 C14.9953633,15.375 15.3360175,15.5135077 15.6130371,15.7905273 C15.8900567,16.067547 16.0285645,16.4082011 16.0285645,16.8125 C16.0285645,17.0820326 15.9611823,17.325357 15.826416,17.5424805 C15.6916497,17.759604 15.5194509,17.9280593 15.3098145,18.0478516 L15.3098145,20.40625 C15.3098145,20.6009124 15.2386889,20.7693678 15.0964355,20.9116211 C14.9541822,21.0538744 14.7857269,21.125 14.5910645,21.125 C14.396402,21.125 14.2279467,21.0538744 14.0856934,20.9116211 C13.94344,20.7693678 13.8723145,20.6009124 13.8723145,20.40625 L13.8723145,18.0478516 C13.662678,17.9280593 13.4904792,17.759604 13.3557129,17.5424805 C13.2209466,17.325357 13.1535645,17.0820326 13.1535645,16.8125 C13.1535645,16.4082011 13.2920722,16.067547 13.5690918,15.7905273 C13.8461114,15.5135077 14.1867656,15.375 14.5910645,15.375 Z" id="" transform="translate(14.591064, 13.937500) scale(-1, 1) translate(-14.591064, -13.937500) "></path>
            </g>
        </g>
    </g>
</svg>
