<?xml version="1.0" encoding="UTF-8"?>
<svg width="26px" height="22px" viewBox="0 0 26 22" version="1.1" xmlns="http://www.w3.org/2000/svg" xmlns:xlink="http://www.w3.org/1999/xlink">
    <!-- Generator: Sketch 46.2 (44496) - http://www.bohemiancoding.com/sketch -->
    <title>Icons/theatre</title>
    <desc>Created with Sketch.</desc>
    <defs></defs>
    <g id="UI-Kit" stroke="none" stroke-width="1" fill="none" fill-rule="evenodd">
        <g id="Icons" transform="translate(-599.000000, -601.000000)" fill="#CA9FF1">
            <g id="Icons/Hobbies-&amp;-Entertainment--" transform="translate(595.000000, 600.000000)">
                <path d="M18.8798828,9.25488281 C18.76595,9.25488281 18.6621912,9.22843451 18.5686035,9.17553711 C18.4750158,9.12263971 18.3956709,9.0432948 18.3305664,8.9375 C18.3305664,8.92936194 18.2023939,8.77067212 17.9460449,8.46142578 C17.689696,8.15217944 17.3743508,7.99755859 17,7.99755859 C16.6256492,7.99755859 16.310304,8.15421393 16.0539551,8.4675293 L15.6694336,8.9375 C15.5799149,9.09212317 15.4517424,9.18977844 15.2849121,9.23046875 C15.1180818,9.27115906 14.9614265,9.25081421 14.8149414,9.16943359 C14.6603182,9.07991492 14.5606285,8.95174237 14.5158691,8.78491211 C14.4711098,8.61808185 14.4934891,8.46142651 14.5830078,8.31494141 C14.5911459,8.29866528 14.6521804,8.20711346 14.7661133,8.0402832 C14.8800461,7.87345294 15.0407704,7.69441827 15.248291,7.50317383 C15.4558116,7.31192938 15.7060532,7.13899817 15.9990234,6.984375 C16.2919937,6.82975183 16.6256492,6.75244141 17,6.75244141 C17.3743508,6.75244141 17.7080063,6.82975183 18.0009766,6.984375 C18.2939468,7.13899817 18.5441884,7.31192938 18.751709,7.50317383 C18.9592296,7.69441827 19.1199539,7.87345294 19.2338867,8.0402832 C19.3478196,8.20711346 19.4088541,8.29866528 19.4169922,8.31494141 C19.5065109,8.46142651 19.5288902,8.61808185 19.4841309,8.78491211 C19.4393715,8.95174237 19.3396818,9.07991492 19.1850586,9.16943359 C19.1362302,9.19384778 19.0853681,9.21419263 19.0324707,9.23046875 C18.9795733,9.24674487 18.9287112,9.25488281 18.8798828,9.25488281 Z M25.1298828,9.25488281 C25.01595,9.25488281 24.9121912,9.22640002 24.8186035,9.16943359 C24.7250158,9.11246716 24.6456709,9.03515674 24.5805664,8.9375 L24.1960449,8.4675293 C23.939696,8.15421393 23.6243508,7.99755859 23.25,7.99755859 C22.8756492,7.99755859 22.560304,8.15421393 22.3039551,8.4675293 L21.9194336,8.9375 C21.8299149,9.09212317 21.7017424,9.18977844 21.5349121,9.23046875 C21.3680818,9.27115906 21.2114265,9.25081421 21.0649414,9.16943359 C20.9103182,9.07991492 20.8106285,8.95174237 20.7658691,8.78491211 C20.7211098,8.61808185 20.7434891,8.46142651 20.8330078,8.31494141 C20.8411459,8.29866528 20.9021804,8.20711346 21.0161133,8.0402832 C21.1300461,7.87345294 21.2907704,7.69441827 21.498291,7.50317383 C21.7058116,7.31192938 21.9560532,7.13899817 22.2490234,6.984375 C22.5419937,6.82975183 22.8756492,6.75244141 23.25,6.75244141 C23.6243508,6.75244141 23.9580063,6.82975183 24.2509766,6.984375 C24.5439468,7.13899817 24.7941884,7.31192938 25.001709,7.50317383 C25.2092296,7.69441827 25.3699539,7.87345294 25.4838867,8.0402832 C25.5978196,8.20711346 25.6588541,8.29866528 25.6669922,8.31494141 C25.7565109,8.46142651 25.7788902,8.61808185 25.7341309,8.78491211 C25.6893715,8.95174237 25.5896818,9.07991492 25.4350586,9.16943359 C25.3862302,9.19384778 25.3353681,9.21419263 25.2824707,9.23046875 C25.2295733,9.24674487 25.1787112,9.25488281 25.1298828,9.25488281 Z M20.125,16.75 C19.4088506,16.75 18.7842637,16.6075861 18.2512207,16.3227539 C17.7181777,16.0379218 17.27466,15.7205421 16.9206543,15.3706055 C16.5666486,15.0206688 16.2980966,14.6951512 16.1149902,14.394043 C15.9318839,14.0929347 15.8321941,13.9301759 15.815918,13.9057617 C15.7670896,13.808105 15.7447103,13.7043463 15.7487793,13.5944824 C15.7528483,13.4846186 15.7833656,13.3849288 15.840332,13.2954102 C15.8972985,13.2058915 15.9725744,13.1346845 16.0661621,13.0817871 C16.1597498,13.0288897 16.2635085,13.0024414 16.3774414,13.0024414 L23.8725586,13.0024414 C23.9864915,13.0024414 24.0902502,13.0288897 24.1838379,13.0817871 C24.2774256,13.1346845 24.3527015,13.2058915 24.409668,13.2954102 C24.4666344,13.3849288 24.4971517,13.4846186 24.5012207,13.5944824 C24.5052897,13.7043463 24.4829104,13.808105 24.434082,13.9057617 C24.4178059,13.9301759 24.3181161,14.0929347 24.1350098,14.394043 C23.9519034,14.6951512 23.6833514,15.0206688 23.3293457,15.3706055 C22.97534,15.7205421 22.5318223,16.0379218 21.9987793,16.3227539 C21.4657363,16.6075861 20.8411494,16.75 20.125,16.75 Z M22.6640625,14.2475586 L17.5859375,14.2475586 C17.8544935,14.5405288 18.200356,14.8233222 18.6235352,15.0959473 C19.0467144,15.3685723 19.5471976,15.5048828 20.125,15.5048828 C20.7028024,15.5048828 21.2032856,15.3685723 21.6264648,15.0959473 C22.049644,14.8233222 22.3955065,14.5405288 22.6640625,14.2475586 Z M29.2436523,1.86962891 C29.325033,1.92659534 29.388102,1.99983679 29.4328613,2.08935547 C29.4776207,2.17887415 29.5,2.27246045 29.5,2.37011719 C29.5,2.41894556 29.4938965,2.70377344 29.4816895,3.22460938 C29.4694824,3.74544531 29.4287927,4.4188598 29.3596191,5.24487305 C29.2904456,6.07088629 29.1805834,7.00674933 29.0300293,8.05249023 C28.8794752,9.09823114 28.6658542,10.1744736 28.3891602,11.28125 C28.2263989,11.9322949 28.0473643,12.5528128 27.8520508,13.1428223 C27.6567373,13.7328317 27.4451509,14.2882461 27.2172852,14.809082 C26.9894194,15.329918 26.7473157,15.8161599 26.4909668,16.2678223 C26.2346179,16.7194847 25.9640314,17.1365541 25.6791992,17.519043 C25.3129865,18.0154647 24.9203309,18.44881 24.5012207,18.8190918 C24.0821105,19.1893736 23.6406273,19.4986153 23.1767578,19.7468262 C22.7128883,19.995037 22.2266464,20.1822097 21.7180176,20.3083496 C21.2093887,20.4344896 20.6783882,20.4975586 20.125,20.4975586 C19.9541007,20.4975586 19.783204,20.4914551 19.6123047,20.479248 C19.4414054,20.467041 19.2745776,20.4487306 19.1118164,20.4243164 C18.7537417,20.8556337 18.3753275,21.2320134 17.9765625,21.5534668 C17.5777975,21.8749202 17.1607281,22.1414377 16.7253418,22.3530273 C16.2899555,22.5646169 15.8342309,22.7253412 15.3581543,22.8352051 C14.8820777,22.9450689 14.3876979,23 13.875,23 C13.4274066,23 12.9920269,22.9572758 12.5688477,22.8718262 C12.1456685,22.7863765 11.736737,22.6602385 11.342041,22.4934082 C10.947345,22.3265779 10.5689308,22.1190605 10.2067871,21.8708496 C9.84464337,21.6226387 9.49674646,21.3317074 9.16308594,20.9980469 C8.89452991,20.7294908 8.63615033,20.4304216 8.38793945,20.1008301 C8.13972858,19.7712386 7.90169385,19.4152037 7.67382812,19.0327148 C7.4459624,18.650226 7.22827252,18.243329 7.02075195,17.8120117 C6.81323138,17.3806945 6.61995532,16.9209009 6.44091797,16.4326172 C6.30257092,16.0501283 6.16829492,15.6534037 6.03808594,15.2424316 C5.90787695,14.8314595 5.78580786,14.4042177 5.671875,13.9606934 C5.55794214,13.517169 5.45214893,13.0594099 5.35449219,12.5874023 C5.25683545,12.1153948 5.16731812,11.6311874 5.0859375,11.1347656 C4.94759045,10.2965453 4.84179724,9.50309619 4.76855469,8.75439453 C4.69531213,8.00569287 4.64038104,7.34855426 4.60375977,6.78295898 C4.56713849,6.21736371 4.54679364,5.76570807 4.54272461,5.42797852 C4.53865558,5.09024896 4.53662109,4.90511084 4.53662109,4.87255859 C4.53662109,4.77490186 4.55900043,4.68131555 4.60375977,4.59179688 C4.6485191,4.5022782 4.71158813,4.42903674 4.79296875,4.37207031 C4.87434937,4.30696582 4.96590118,4.26831061 5.06762695,4.25610352 C5.16935272,4.24389642 5.26497351,4.25406885 5.35449219,4.28662109 C5.36263025,4.28662109 5.5030097,4.32731079 5.77563477,4.40869141 C6.04825983,4.49007202 6.4287085,4.58772729 6.91699219,4.70166016 C7.40527588,4.81559302 7.99120752,4.93359314 8.67480469,5.05566406 C9.35840186,5.17773499 10.1111613,5.27945923 10.9331055,5.36083984 C10.8598629,4.49006726 10.8171387,3.78410101 10.8049316,3.24291992 C10.7927245,2.70173883 10.7866211,2.4108075 10.7866211,2.37011719 C10.7866211,2.27246045 10.8090004,2.17887415 10.8537598,2.08935547 C10.8985191,1.99983679 10.9615881,1.92659534 11.0429688,1.86962891 C11.1243494,1.81266248 11.2159012,1.77604175 11.317627,1.75976562 C11.4193527,1.7434895 11.5149735,1.75162744 11.6044922,1.78417969 C11.6126302,1.78417969 11.8343891,1.8492832 12.2697754,1.97949219 C12.7051617,2.10970117 13.3033002,2.25008063 14.064209,2.40063477 C14.8251177,2.5511889 15.72436,2.68953387 16.7619629,2.81567383 C17.7995657,2.94181378 18.9205669,3.00488281 20.125,3.00488281 C21.3294331,3.00488281 22.4524687,2.94181378 23.4941406,2.81567383 C24.5358125,2.68953387 25.4391238,2.54915442 26.2041016,2.39453125 C26.9690793,2.23990808 27.5712869,2.09952863 28.0107422,1.97338867 C28.4501975,1.84724872 28.6739908,1.78417969 28.6821289,1.78417969 C28.7716476,1.75162744 28.8672684,1.7434895 28.9689941,1.75976562 C29.0707199,1.77604175 29.1622717,1.81266248 29.2436523,1.86962891 Z M13.875,21.7548828 C14.2493508,21.7548828 14.6094547,21.7202966 14.9553223,21.651123 C15.3011899,21.5819495 15.6368799,21.4761563 15.9624023,21.3337402 C16.2879248,21.1913242 16.599201,21.014324 16.8962402,20.8027344 C17.1932795,20.5911448 17.4801418,20.3429376 17.7568359,20.0581055 C17.496418,19.9604487 17.2441418,19.8444831 17,19.7102051 C16.7558582,19.5759271 16.5198579,19.4233407 16.2919922,19.2524414 L11.3725586,19.2524414 C11.2667638,19.2524414 11.167074,19.2259931 11.0734863,19.1730957 C10.9798986,19.1201983 10.9046227,19.0489913 10.8476562,18.9594727 C10.7906898,18.8618159 10.7581381,18.7600917 10.75,18.6542969 C10.7418619,18.5485021 10.7622068,18.4467778 10.8110352,18.3491211 C10.8273113,18.3247069 10.8985182,18.2026378 11.0246582,17.9829102 C11.1507982,17.7631825 11.3257639,17.5109064 11.5495605,17.2260742 C11.7733572,16.9412421 12.0459782,16.6564142 12.3674316,16.371582 C12.6888851,16.0867499 13.0530579,15.8629565 13.4599609,15.7001953 C13.3216139,15.4316393 13.1893724,15.1488459 13.0632324,14.8518066 C12.9370925,14.5547674 12.8129889,14.2475602 12.690918,13.9301758 C12.5444329,13.5476869 12.4081224,13.1468934 12.2819824,12.7277832 C12.1558425,12.308673 12.0358079,11.8753278 11.921875,11.4277344 C11.7509757,11.5253911 11.5678721,11.6027015 11.3725586,11.659668 C11.1772451,11.7166344 10.9697277,11.7451172 10.75,11.7451172 C10.3756492,11.7451172 10.0419937,11.6678068 9.74902344,11.5131836 C9.45605322,11.3585604 9.20581158,11.1856292 8.99829102,10.9943848 C8.79077045,10.8031403 8.63004614,10.6261401 8.51611328,10.4633789 C8.40218042,10.3006177 8.34114587,10.2111003 8.33300781,10.1948242 C8.24348914,10.040201 8.2211098,9.87947675 8.26586914,9.71264648 C8.31062848,9.54581622 8.41031824,9.42171265 8.56494141,9.34033203 C8.71142651,9.25081335 8.86808185,9.22843402 9.03491211,9.27319336 C9.20174237,9.3179527 9.32991492,9.41357349 9.41943359,9.56005859 L9.80395508,10.0300293 C10.060304,10.3433447 10.3756492,10.5 10.75,10.5 C10.9208993,10.5 11.0795891,10.4613448 11.2260742,10.3840332 C11.3725593,10.3067216 11.5027664,10.2151698 11.6166992,10.109375 C11.5678708,9.87337122 11.5190432,9.63126752 11.4702148,9.38305664 C11.4213865,9.13484576 11.3766278,8.88460413 11.3359375,8.63232422 C11.2789711,8.28238757 11.2281089,7.93855963 11.1833496,7.60083008 C11.1385903,7.26310052 11.0958661,6.93554846 11.0551758,6.61816406 C10.4692354,6.56933569 9.9117865,6.50626666 9.3828125,6.42895508 C8.8538385,6.35164349 8.36759662,6.27229858 7.92407227,6.19091797 C7.48054791,6.10953735 7.07975439,6.02612347 6.72167969,5.94067383 C6.36360498,5.85522418 6.05843225,5.77994824 5.80615234,5.71484375 C5.83056653,6.37402673 5.89973901,7.32820013 6.01367188,8.57739258 C6.12760474,9.82658502 6.33512219,11.1591726 6.63623047,12.5751953 C6.93733875,13.991218 7.3605116,15.3807712 7.90576172,16.7438965 C8.45101184,18.1070218 9.16715051,19.2320919 10.0541992,20.1191406 C10.3308933,20.3876967 10.6157212,20.6257314 10.9086914,20.833252 C11.2016616,21.0407725 11.5068344,21.2116693 11.8242187,21.3459473 C12.1416031,21.4802253 12.4711897,21.5819495 12.8129883,21.651123 C13.1547869,21.7202966 13.5087872,21.7548828 13.875,21.7548828 Z M14.9614258,17.9951172 C14.8068026,17.8160798 14.6562507,17.6289072 14.5097656,17.4335938 C14.3632805,17.2382803 14.2208666,17.0307628 14.0825195,16.8110352 C13.7732732,16.9005538 13.4843763,17.0612781 13.2158203,17.2932129 C12.9472643,17.5251476 12.719402,17.7591134 12.5322266,17.9951172 L14.9614258,17.9951172 Z M27.168457,10.9882812 C27.3637705,10.2070273 27.5265293,9.43188861 27.6567383,8.6628418 C27.7869473,7.89379498 27.8927405,7.1654494 27.9741211,6.4777832 C28.0555017,5.790117 28.1145018,5.16553015 28.151123,4.60400391 C28.1877443,4.04247766 28.2141926,3.57861511 28.2304688,3.21240234 C27.8805321,3.31005908 27.4349799,3.41788678 26.8937988,3.53588867 C26.3526177,3.65389056 25.7341343,3.76578723 25.0383301,3.87158203 C24.3425258,3.97737683 23.5816285,4.06689417 22.7556152,4.14013672 C21.929602,4.21337927 21.052739,4.25 20.125,4.25 C19.197261,4.25 18.3224325,4.21337927 17.5004883,4.14013672 C16.6785441,4.06689417 15.9217157,3.97737683 15.2299805,3.87158203 C14.5382452,3.76578723 13.9238308,3.65389056 13.3867188,3.53588867 C12.8496067,3.41788678 12.406089,3.31005908 12.0561523,3.21240234 C12.0805665,3.78206665 12.1334631,4.56941229 12.2148438,5.57446289 C12.2962244,6.57951349 12.4406728,7.67203186 12.6481934,8.85205078 C12.8557139,10.0320697 13.1425763,11.2324158 13.5087891,12.453125 C13.8750018,13.6738342 14.3470023,14.784663 14.9248047,15.7856445 C14.9329427,15.7937826 14.9390462,15.8019205 14.9431152,15.8100586 C14.9471843,15.8181967 14.9532877,15.8263346 14.9614258,15.8344727 C15.1567393,16.1681332 15.3662912,16.4855128 15.5900879,16.7866211 C15.8138846,17.0877294 16.0519193,17.3644193 16.3041992,17.6166992 C16.3937179,17.7062179 16.4873042,17.7957352 16.5849609,17.8852539 C16.6826177,17.9747726 16.7802729,18.056152 16.8779297,18.1293945 C16.8860677,18.1375326 16.8921712,18.1416016 16.8962402,18.1416016 L16.9023438,18.1416016 C17.3743513,18.5159524 17.8789036,18.7946768 18.4160156,18.9777832 C18.9531277,19.1608896 19.5227834,19.2524414 20.125,19.2524414 C20.5807314,19.2524414 21.0140767,19.2015793 21.4250488,19.0998535 C21.8360209,18.9981277 22.230711,18.8435069 22.6091309,18.6359863 C22.9875507,18.4284658 23.349689,18.1700862 23.6955566,17.8608398 C24.0414243,17.5515935 24.3689763,17.1894552 24.6782227,16.7744141 C24.9386406,16.4244774 25.1848133,16.0419943 25.416748,15.6269531 C25.6486828,15.211912 25.8704417,14.7643253 26.0820312,14.2841797 C26.2936208,13.8040341 26.4889314,13.2893094 26.6679688,12.7399902 C26.8470061,12.1906711 27.0138339,11.6067739 27.168457,10.9882812 Z" id="theater"></path>
            </g>
        </g>
    </g>
</svg>