<?xml version="1.0" encoding="UTF-8"?>
<svg width="21px" height="15px" viewBox="0 0 21 15" version="1.1" xmlns="http://www.w3.org/2000/svg" xmlns:xlink="http://www.w3.org/1999/xlink">
    <!-- Generator: Sketch 46.2 (44496) - http://www.bohemiancoding.com/sketch -->
    <title>Icons/Payments</title>
    <desc>Created with Sketch.</desc>
    <defs></defs>
    <g id="00_Styleguide" stroke="none" stroke-width="1" fill="none" fill-rule="evenodd">
        <g id="Icons" transform="translate(-353.000000, -224.000000)" fill="#ffffff">
            <g id="Icons/Nav/Payment/White" transform="translate(348.000000, 217.000000)">
                <path d="M25.2910156,14.2568359 L18.6845703,7.66113281 C18.5771479,7.5537104 18.4482429,7.5 18.2978516,7.5 C18.1474602,7.5 18.0185552,7.5537104 17.9111328,7.66113281 C17.8037104,7.76855522 17.75,7.89746019 17.75,8.04785156 C17.75,8.19824294 17.8037104,8.3271479 17.9111328,8.43457031 L23.5722656,14.0957031 L5.65429688,14.0957031 C5.496744,14.0957031 5.36425835,14.1494135 5.25683594,14.2568359 C5.14941353,14.3642583 5.09570312,14.496744 5.09570312,14.6542969 C5.09570312,14.8046883 5.14941353,14.9335932 5.25683594,15.0410156 C5.36425835,15.148438 5.496744,15.2021484 5.65429688,15.2021484 L23.5722656,15.2021484 L17.9111328,20.8632812 C17.8037104,20.9707037 17.75,21.0996086 17.75,21.25 C17.75,21.4003914 17.8037104,21.5292963 17.9111328,21.6367188 C17.9612633,21.6940107 18.0203447,21.7351887 18.0883789,21.7602539 C18.1564131,21.7853191 18.2262366,21.7978516 18.2978516,21.7978516 C18.3694665,21.7978516 18.43929,21.7853191 18.5073242,21.7602539 C18.5753584,21.7351887 18.6344399,21.6940107 18.6845703,21.6367188 L25.2910156,15.0410156 C25.398438,14.9335932 25.4521484,14.8028979 25.4521484,14.6489258 C25.4521484,14.4949537 25.398438,14.3642583 25.2910156,14.2568359 Z" id="right7"></path>
            </g>
        </g>
    </g>
</svg>
