[
  {
    "name": "Netflix",
    "reference": "1915930",
    "paymentMethod" : "CHECK",
    "creditorAddress": {
      "country": "US",
      "countrySubDivision": "NY",
      "postCode": "NY 10011",
      "addressLine": "500 Avenue of the Americas",
      "townName": "New York"
    }
  },
  {
    "name": "conEdison",
    "reference": "1915931",
    "paymentMethod" : "CHECK",
    "creditorAddress": {
      "country": "US",
      "countrySubDivision": "NY",
      "postCode": "NY 10011",
      "addressLine": "500 Avenue of the Americas",
      "townName": "New York"
    }
  },
  {
    "name": "Cigna",
    "reference": "1915932",
    "paymentMethod" : "CHECK",
    "creditorAddress": {
      "country": "US",
      "countrySubDivision": "NY",
      "postCode": "NY 10011",
      "addressLine": "500 Avenue of the Americas",
      "townName": "New York"
    }
  },
  {
    "name": "NYC DEP Water",
    "paymentMethod" : "CHECK",
    "reference": "1915933",
    "creditorAddress": {
      "country": "US",
      "countrySubDivision": "NY",
      "postCode": "NY 10011",
      "addressLine": "500 Avenue of the Americas",
      "townName": "New York"
    }
  },
  {
    "name": "Verizon",
    "paymentMethod" : "ELECTRONIC",
    "reference": "1915934",
    "creditorAddress": {
      "country": "US",
      "countrySubDivision": "NY",
      "postCode": "NY 10011",
      "addressLine": "500 Avenue of the Americas",
      "townName": "New York"
    }
  },
  {
    "name": "AT&T",
    "reference": "1915935",
    "paymentMethod" : "ELECTRONIC",
    "creditorAddress": {
      "country": "US",
      "countrySubDivision": "NY",
      "postCode": "NY 10011",
      "addressLine": "500 Avenue of the Americas",
      "townName": "New York"
    }
  }
]